username,password
user0,123456
user1,123456
user2,123456
user3,123456
user4,123456
user5,123456
user6,123456
user7,123456
user8,123456
user9,123456
user10,123456
user11,123456
user12,123456
user13,123456
user14,123456
user15,123456
user16,123456
user17,123456
user18,123456
user19,123456
user20,123456
user21,123456
user22,123456
user23,123456
user24,123456
user25,123456
user26,123456
user27,123456
user28,123456
user29,123456
user30,123456
user31,123456
user32,123456
user33,123456
user34,123456
user35,123456
user36,123456
user37,123456
user38,123456
user39,123456
user40,123456
user41,123456
user42,123456
user43,123456
user44,123456
user45,123456
user46,123456
user47,123456
user48,123456
user49,123456
user50,123456
user51,123456
user52,123456
user53,123456
user54,123456
user55,123456
user56,123456
user57,123456
user58,123456
user59,123456
user60,123456
user61,123456
user62,123456
user63,123456
user64,123456
user65,123456
user66,123456
user67,123456
user68,123456
user69,123456
user70,123456
user71,123456
user72,123456
user73,123456
user74,123456
user75,123456
user76,123456
user77,123456
user78,123456
user79,123456
user80,123456
user81,123456
user82,123456
user83,123456
user84,123456
user85,123456
user86,123456
user87,123456
user88,123456
user89,123456
user90,123456
user91,123456
user92,123456
user93,123456
user94,123456
user95,123456
user96,123456
user97,123456
user98,123456
user99,123456